feed                      first file                second file                      
Alienvault_IP_Reputation  old(2019-06-21):  54213   new(2019-06-22):  54545   removed:   2008   added:  2340
Alienvault_IP_Reputation  old(2019-06-22):  54545   new(2019-06-23):  55283   removed:   1943   added:  2681
Alienvault_IP_Reputation  old(2019-06-23):  55283   new(2019-06-24):  55695   removed:   2190   added:  2602
Alienvault_IP_Reputation  old(2019-06-24):  55695   new(2019-06-25):  56141   removed:   2112   added:  2558
Alienvault_IP_Reputation  old(2019-06-25):  56141   new(2019-06-26):  56856   removed:   2328   added:  3043
Alienvault_IP_Reputation  old(2019-06-26):  56856   new(2019-06-27):  56329   removed:   3642   added:  3115
Alienvault_IP_Reputation  old(2019-06-27):  56329   new(2019-06-28):  57348   removed:    999   added:  2018
Alienvault_IP_Reputation  old(2019-06-28):  57348   new(2019-06-29):  58515   removed:   1916   added:  3083
Alienvault_IP_Reputation  old(2019-06-29):  58515   new(2019-06-30):  58115   removed:   2775   added:  2375
Alienvault_IP_Reputation  old(2019-06-30):  58115   new(2019-07-01):  58503   removed:   2188   added:  2576
Alienvault_IP_Reputation  old(2019-07-01):  58503   new(2019-07-02):  59762   removed:   2591   added:  3850
Alienvault_IP_Reputation  old(2019-07-02):  59762   new(2019-07-03):  60092   removed:   2182   added:  2512
Alienvault_IP_Reputation  old(2019-07-03):  60092   new(2019-07-04):  60102   removed:   2016   added:  2026
Alienvault_IP_Reputation  old(2019-07-04):  60102   new(2019-07-05):  60151   removed:   1671   added:  1720
Alienvault_IP_Reputation  old(2019-07-05):  60151   new(2019-07-06):  60906   removed:   2029   added:  2784
Alienvault_IP_Reputation  old(2019-07-06):  60906   new(2019-07-07):  61415   removed:   2171   added:  2680
Alienvault_IP_Reputation  old(2019-07-07):  61415   new(2019-07-08):  61641   removed:   2007   added:  2233

Alienvault_IP_Reputation  old(2019-06-21):  54213   new(2019-07-08):  61641   removed:  30742   added:  38170

Bad_IPs                   old(2019-06-21): 428895   new(2019-06-22): 428895   removed:      0   added:     0
Bad_IPs                   old(2019-06-22): 428895   new(2019-06-23): 428896   removed:      1   added:     2
Bad_IPs                   old(2019-06-23): 428896   new(2019-06-24): 428897   removed:      1   added:     2
Bad_IPs                   old(2019-06-24): 428897   new(2019-06-25): 428898   removed:      1   added:     2
Bad_IPs                   old(2019-06-25): 428898   new(2019-06-26): 428899   removed:      1   added:     2
Bad_IPs                   old(2019-06-26): 428899   new(2019-06-27): 428902   removed:      3   added:     6
Bad_IPs                   old(2019-06-27): 428902   new(2019-06-28): 428903   removed:      1   added:     2
Bad_IPs                   old(2019-06-28): 428903   new(2019-06-29): 428904   removed:      1   added:     2
Bad_IPs                   old(2019-06-29): 428904   new(2019-06-30): 428905   removed:      1   added:     2
Bad_IPs                   old(2019-06-30): 428905   new(2019-07-01): 428905   removed:      0   added:     0
Bad_IPs                   old(2019-07-01): 428905   new(2019-07-02): 428905   removed:      0   added:     0
Bad_IPs                   old(2019-07-02): 428905   new(2019-07-03): 428907   removed:      2   added:     4
Bad_IPs                   old(2019-07-03): 428907   new(2019-07-04): 428909   removed:      2   added:     4
Bad_IPs                   old(2019-07-04): 428909   new(2019-07-05): 428910   removed:      1   added:     2
Bad_IPs                   old(2019-07-05): 428910   new(2019-07-06): 428910   removed:      0   added:     0
Bad_IPs                   old(2019-07-06): 428910   new(2019-07-07): 428911   removed:      1   added:     2
Bad_IPs                   old(2019-07-07): 428911   new(2019-07-08): 428913   removed:      2   added:     4

Bad_IPs                   old(2019-06-21): 428895   new(2019-07-08): 428913   removed:     18   added:     36

BBcan177_Malicious_IPs    old(2019-06-21):   2807   new(2019-06-22):   2807   removed:      0   added:     0
BBcan177_Malicious_IPs    old(2019-06-22):   2807   new(2019-06-23):   2807   removed:      0   added:     0
BBcan177_Malicious_IPs    old(2019-06-23):   2807   new(2019-06-24):   2807   removed:      0   added:     0
BBcan177_Malicious_IPs    old(2019-06-24):   2807   new(2019-06-25):   2807   removed:      0   added:     0
BBcan177_Malicious_IPs    old(2019-06-25):   2807   new(2019-06-26):   2807   removed:      0   added:     0
BBcan177_Malicious_IPs    old(2019-06-26):   2807   new(2019-06-27):   2807   removed:      0   added:     0
BBcan177_Malicious_IPs    old(2019-06-27):   2807   new(2019-06-28):   2807   removed:      0   added:     0
BBcan177_Malicious_IPs    old(2019-06-28):   2807   new(2019-06-29):   2807   removed:      0   added:     0
BBcan177_Malicious_IPs    old(2019-06-29):   2807   new(2019-06-30):   2807   removed:      0   added:     0
BBcan177_Malicious_IPs    old(2019-06-30):   2807   new(2019-07-01):   2807   removed:      0   added:     0
BBcan177_Malicious_IPs    old(2019-07-01):   2807   new(2019-07-02):   2807   removed:      0   added:     0
BBcan177_Malicious_IPs    old(2019-07-02):   2807   new(2019-07-03):   2807   removed:      0   added:     0
BBcan177_Malicious_IPs    old(2019-07-03):   2807   new(2019-07-04):   2807   removed:      0   added:     0
BBcan177_Malicious_IPs    old(2019-07-04):   2807   new(2019-07-05):   2807   removed:      0   added:     0
BBcan177_Malicious_IPs    old(2019-07-05):   2807   new(2019-07-06):   2807   removed:      0   added:     0
BBcan177_Malicious_IPs    old(2019-07-06):   2807   new(2019-07-07):   2807   removed:      0   added:     0
BBcan177_Malicious_IPs    old(2019-07-07):   2807   new(2019-07-08):   2807   removed:      0   added:     0

BBcan177_Malicious_IPs    old(2019-06-21):   2807   new(2019-07-08):   2807   removed:      0   added:      0

Blocklist.de_Blocklist    old(2019-06-21):  32185   new(2019-06-22):  30268   removed:   8995   added:  7078
Blocklist.de_Blocklist    old(2019-06-22):  30268   new(2019-06-23):  32155   removed:   6956   added:  8843
Blocklist.de_Blocklist    old(2019-06-23):  32155   new(2019-06-24):  32573   removed:   6005   added:  6423
Blocklist.de_Blocklist    old(2019-06-24):  32573   new(2019-06-25):  33728   removed:   6801   added:  7956
Blocklist.de_Blocklist    old(2019-06-25):  33728   new(2019-06-26):  32762   removed:   7335   added:  6369
Blocklist.de_Blocklist    old(2019-06-26):  32762   new(2019-06-27):  33114   removed:   9218   added:  9570
Blocklist.de_Blocklist    old(2019-06-27):  33114   new(2019-06-28):  35109   removed:   5090   added:  7085
Blocklist.de_Blocklist    old(2019-06-28):  35109   new(2019-06-29):  34989   removed:   7213   added:  7093
Blocklist.de_Blocklist    old(2019-06-29):  34989   new(2019-06-30):  33451   removed:   8382   added:  6844
Blocklist.de_Blocklist    old(2019-06-30):  33451   new(2019-07-01):  32408   removed:   7527   added:  6484
Blocklist.de_Blocklist    old(2019-07-01):  32408   new(2019-07-02):  31519   removed:   6672   added:  5783
Blocklist.de_Blocklist    old(2019-07-02):  31519   new(2019-07-03):  30831   removed:   6758   added:  6070
Blocklist.de_Blocklist    old(2019-07-03):  30831   new(2019-07-04):  33556   removed:   7818   added: 10543
Blocklist.de_Blocklist    old(2019-07-04):  33556   new(2019-07-05):  38712   removed:   8975   added: 14131
Blocklist.de_Blocklist    old(2019-07-05):  38712   new(2019-07-06):  39922   removed:   8384   added:  9594
Blocklist.de_Blocklist    old(2019-07-06):  39922   new(2019-07-07):  36546   removed:  13499   added: 10123
Blocklist.de_Blocklist    old(2019-07-07):  36546   new(2019-07-08):  32197   removed:  13194   added:  8845

Blocklist.de_Blocklist    old(2019-06-21):  32185   new(2019-07-08):  32197   removed:  14124   added:  14136

Brute_Force_Blocker       old(2019-06-21):   1403   new(2019-06-22):   1462   removed:     70   added:   129
Brute_Force_Blocker       old(2019-06-22):   1462   new(2019-06-23):   1514   removed:     75   added:   127
Brute_Force_Blocker       old(2019-06-23):   1514   new(2019-06-24):   1579   removed:     91   added:   156
Brute_Force_Blocker       old(2019-06-24):   1579   new(2019-06-25):   1618   removed:     63   added:   102
Brute_Force_Blocker       old(2019-06-25):   1618   new(2019-06-26):   1642   removed:     50   added:    74
Brute_Force_Blocker       old(2019-06-26):   1642   new(2019-06-27):   1647   removed:     44   added:    49
Brute_Force_Blocker       old(2019-06-27):   1647   new(2019-06-28):   1656   removed:     21   added:    30
Brute_Force_Blocker       old(2019-06-28):   1656   new(2019-06-29):   1673   removed:     36   added:    53
Brute_Force_Blocker       old(2019-06-29):   1673   new(2019-06-30):   1656   removed:     62   added:    45
Brute_Force_Blocker       old(2019-06-30):   1656   new(2019-07-01):   1568   removed:    203   added:   115
Brute_Force_Blocker       old(2019-07-01):   1568   new(2019-07-02):   1493   removed:    167   added:    92
Brute_Force_Blocker       old(2019-07-02):   1493   new(2019-07-03):   1423   removed:    186   added:   116
Brute_Force_Blocker       old(2019-07-03):   1423   new(2019-07-04):   1493   removed:    179   added:   249
Brute_Force_Blocker       old(2019-07-04):   1493   new(2019-07-05):   1485   removed:     96   added:    88
Brute_Force_Blocker       old(2019-07-05):   1485   new(2019-07-06):   1402   removed:    177   added:    94
Brute_Force_Blocker       old(2019-07-06):   1402   new(2019-07-07):   1333   removed:    170   added:   101
Brute_Force_Blocker       old(2019-07-07):   1333   new(2019-07-08):   1292   removed:    122   added:    81

Brute_Force_Blocker       old(2019-06-21):   1403   new(2019-07-08):   1292   removed:    916   added:    805

CI_Bad_Guys               old(2019-06-21):  15000   new(2019-06-22):  15000   removed:   2930   added:  2930
CI_Bad_Guys               old(2019-06-22):  15000   new(2019-06-23):  15000   removed:   3009   added:  3009
CI_Bad_Guys               old(2019-06-23):  15000   new(2019-06-24):  15000   removed:   2977   added:  2977
CI_Bad_Guys               old(2019-06-24):  15000   new(2019-06-25):  15000   removed:   3151   added:  3151
CI_Bad_Guys               old(2019-06-25):  15000   new(2019-06-26):  15000   removed:   3406   added:  3406
CI_Bad_Guys               old(2019-06-26):  15000   new(2019-06-27):  15000   removed:   3618   added:  3618
CI_Bad_Guys               old(2019-06-27):  15000   new(2019-06-28):  15000   removed:   1878   added:  1878
CI_Bad_Guys               old(2019-06-28):  15000   new(2019-06-29):  15000   removed:   3135   added:  3135
CI_Bad_Guys               old(2019-06-29):  15000   new(2019-06-30):  15000   removed:   3039   added:  3039
CI_Bad_Guys               old(2019-06-30):  15000   new(2019-07-01):  15000   removed:   3195   added:  3195
CI_Bad_Guys               old(2019-07-01):  15000   new(2019-07-02):  15000   removed:   3326   added:  3326
CI_Bad_Guys               old(2019-07-02):  15000   new(2019-07-03):  15000   removed:   2812   added:  2812
CI_Bad_Guys               old(2019-07-03):  15000   new(2019-07-04):  15000   removed:   2958   added:  2958
CI_Bad_Guys               old(2019-07-04):  15000   new(2019-07-05):  15000   removed:   2575   added:  2575
CI_Bad_Guys               old(2019-07-05):  15000   new(2019-07-06):  15000   removed:   2845   added:  2845
CI_Bad_Guys               old(2019-07-06):  15000   new(2019-07-07):  15000   removed:   2947   added:  2947
CI_Bad_Guys               old(2019-07-07):  15000   new(2019-07-08):  15000   removed:   2878   added:  2878

CI_Bad_Guys               old(2019-06-21):  15000   new(2019-07-08):  15000   removed:   9721   added:   9721

CnC_IPs                   old(2019-06-21):    575   new(2019-06-22):    568   removed:     71   added:    64
CnC_IPs                   old(2019-06-22):    568   new(2019-06-23):    580   removed:     42   added:    54
CnC_IPs                   old(2019-06-23):    580   new(2019-06-24):    599   removed:     49   added:    68
CnC_IPs                   old(2019-06-24):    599   new(2019-06-25):    634   removed:     76   added:   111
CnC_IPs                   old(2019-06-25):    634   new(2019-06-26):    625   removed:     56   added:    47
CnC_IPs                   old(2019-06-26):    625   new(2019-06-27):    576   removed:    134   added:    85
CnC_IPs                   old(2019-06-27):    576   new(2019-06-28):    611   removed:     57   added:    92
CnC_IPs                   old(2019-06-28):    611   new(2019-06-29):    578   removed:     97   added:    64
CnC_IPs                   old(2019-06-29):    578   new(2019-06-30):    578   removed:     34   added:    34
CnC_IPs                   old(2019-06-30):    578   new(2019-07-01):    599   removed:     67   added:    88
CnC_IPs                   old(2019-07-01):    599   new(2019-07-02):    579   removed:     87   added:    67
CnC_IPs                   old(2019-07-02):    579   new(2019-07-03):    577   removed:     35   added:    33
CnC_IPs                   old(2019-07-03):    577   new(2019-07-04):    554   removed:     93   added:    70
CnC_IPs                   old(2019-07-04):    554   new(2019-07-05):    592   removed:     58   added:    96
CnC_IPs                   old(2019-07-05):    592   new(2019-07-06):    583   removed:     56   added:    47
CnC_IPs                   old(2019-07-06):    583   new(2019-07-07):    573   removed:     53   added:    43
CnC_IPs                   old(2019-07-07):    573   new(2019-07-08):    547   removed:     80   added:    54

CnC_IPs                   old(2019-06-21):    575   new(2019-07-08):    547   removed:    187   added:    159

Compromised_IPs           old(2019-06-21):   1343   new(2019-06-22):   1403   removed:     77   added:   137
Compromised_IPs           old(2019-06-22):   1403   new(2019-06-23):   1403   removed:      0   added:     0
Compromised_IPs           old(2019-06-23):   1403   new(2019-06-24):   1403   removed:      0   added:     0
Compromised_IPs           old(2019-06-24):   1403   new(2019-06-25):   1581   removed:    223   added:   401
Compromised_IPs           old(2019-06-25):   1581   new(2019-06-26):   1617   removed:     60   added:    96
Compromised_IPs           old(2019-06-26):   1617   new(2019-06-27):   1642   removed:     51   added:    76
Compromised_IPs           old(2019-06-27):   1642   new(2019-06-28):   1640   removed:     36   added:    34
Compromised_IPs           old(2019-06-28):   1640   new(2019-06-29):   1655   removed:     34   added:    49
Compromised_IPs           old(2019-06-29):   1655   new(2019-06-30):   1655   removed:      0   added:     0
Compromised_IPs           old(2019-06-30):   1655   new(2019-07-01):   1655   removed:      0   added:     0
Compromised_IPs           old(2019-07-01):   1655   new(2019-07-02):   1564   removed:    266   added:   175
Compromised_IPs           old(2019-07-02):   1564   new(2019-07-03):   1492   removed:    163   added:    91
Compromised_IPs           old(2019-07-03):   1492   new(2019-07-04):   1421   removed:    187   added:   116
Compromised_IPs           old(2019-07-04):   1421   new(2019-07-05):   1492   removed:    173   added:   244
Compromised_IPs           old(2019-07-05):   1492   new(2019-07-06):   1480   removed:    108   added:    96
Compromised_IPs           old(2019-07-06):   1480   new(2019-07-07):   1480   removed:      0   added:     0
Compromised_IPs           old(2019-07-07):   1480   new(2019-07-08):   1480   removed:      0   added:     0

Compromised_IPs           old(2019-06-21):   1343   new(2019-07-08):   1480   removed:    723   added:    860

Cridex_IPs                old(2019-06-21):    467   new(2019-06-22):    459   removed:     20   added:    12
Cridex_IPs                old(2019-06-22):    459   new(2019-06-23):    453   removed:     16   added:    10
Cridex_IPs                old(2019-06-23):    453   new(2019-06-24):    456   removed:      5   added:     8
Cridex_IPs                old(2019-06-24):    456   new(2019-06-25):    441   removed:     29   added:    14
Cridex_IPs                old(2019-06-25):    441   new(2019-06-26):    445   removed:      6   added:    10
Cridex_IPs                old(2019-06-26):    445   new(2019-06-27):    454   removed:     12   added:    21
Cridex_IPs                old(2019-06-27):    454   new(2019-06-28):    461   removed:     13   added:    20
Cridex_IPs                old(2019-06-28):    461   new(2019-06-29):    464   removed:      4   added:     7
Cridex_IPs                old(2019-06-29):    464   new(2019-06-30):    450   removed:     29   added:    15
Cridex_IPs                old(2019-06-30):    450   new(2019-07-01):    445   removed:     15   added:    10
Cridex_IPs                old(2019-07-01):    445   new(2019-07-02):    453   removed:      8   added:    16
Cridex_IPs                old(2019-07-02):    453   new(2019-07-03):    469   removed:     16   added:    32
Cridex_IPs                old(2019-07-03):    469   new(2019-07-04):    479   removed:     10   added:    20
Cridex_IPs                old(2019-07-04):    479   new(2019-07-05):    472   removed:     16   added:     9
Cridex_IPs                old(2019-07-05):    472   new(2019-07-06):    471   removed:      2   added:     1
Cridex_IPs                old(2019-07-06):    471   new(2019-07-07):    475   removed:     17   added:    21
Cridex_IPs                old(2019-07-07):    475   new(2019-07-08):    470   removed:     10   added:     5

Cridex_IPs                old(2019-06-21):    467   new(2019-07-08):    470   removed:    105   added:    108

Darklist                  old(2019-06-21):   7671   new(2019-06-22):   7823   removed:    154   added:   306
Darklist                  old(2019-06-22):   7823   new(2019-06-23):   7833   removed:     13   added:    23
Darklist                  old(2019-06-23):   7833   new(2019-06-24):   7832   removed:      2   added:     1
Darklist                  old(2019-06-24):   7832   new(2019-06-25):   7919   removed:     89   added:   176
Darklist                  old(2019-06-25):   7919   new(2019-06-26):   7992   removed:     76   added:   149
Darklist                  old(2019-06-26):   7992   new(2019-06-27):   8008   removed:     19   added:    35
Darklist                  old(2019-06-27):   8008   new(2019-06-28):   8008   removed:      0   added:     0
Darklist                  old(2019-06-28):   8008   new(2019-06-29):   8062   removed:     56   added:   110
Darklist                  old(2019-06-29):   8062   new(2019-06-30):   8064   removed:      4   added:     6
Darklist                  old(2019-06-30):   8064   new(2019-07-01):   8066   removed:      2   added:     4
Darklist                  old(2019-07-01):   8066   new(2019-07-02):   8062   removed:     11   added:     7
Darklist                  old(2019-07-02):   8062   new(2019-07-03):   8071   removed:     10   added:    19
Darklist                  old(2019-07-03):   8071   new(2019-07-04):   8075   removed:     16   added:    20
Darklist                  old(2019-07-04):   8075   new(2019-07-05):   8078   removed:      5   added:     8
Darklist                  old(2019-07-05):   8078   new(2019-07-06):   8066   removed:     30   added:    18
Darklist                  old(2019-07-06):   8066   new(2019-07-07):   8065   removed:      8   added:     7
Darklist                  old(2019-07-07):   8065   new(2019-07-08):   8045   removed:     44   added:    24

Darklist                  old(2019-06-21):   7671   new(2019-07-08):   8045   removed:    426   added:    800

Dictionary_SSH_Attacks    old(2019-06-21):  52566   new(2019-06-22):  52600   removed:     44   added:    78
Dictionary_SSH_Attacks    old(2019-06-22):  52600   new(2019-06-23):  52637   removed:     43   added:    80
Dictionary_SSH_Attacks    old(2019-06-23):  52637   new(2019-06-24):  52671   removed:     35   added:    69
Dictionary_SSH_Attacks    old(2019-06-24):  52671   new(2019-06-25):  52682   removed:     15   added:    26
Dictionary_SSH_Attacks    old(2019-06-25):  52682   new(2019-06-26):  52695   removed:     15   added:    28
Dictionary_SSH_Attacks    old(2019-06-26):  52695   new(2019-06-27):  52699   removed:     25   added:    29
Dictionary_SSH_Attacks    old(2019-06-27):  52699   new(2019-06-28):  52693   removed:     18   added:    12
Dictionary_SSH_Attacks    old(2019-06-28):  52693   new(2019-06-29):  52689   removed:     29   added:    25
Dictionary_SSH_Attacks    old(2019-06-29):  52689   new(2019-06-30):  52682   removed:     29   added:    22
Dictionary_SSH_Attacks    old(2019-06-30):  52682   new(2019-07-01):  52661   removed:     52   added:    31
Dictionary_SSH_Attacks    old(2019-07-01):  52661   new(2019-07-02):  52654   removed:     35   added:    28
Dictionary_SSH_Attacks    old(2019-07-02):  52654   new(2019-07-03):  52648   removed:     23   added:    17
Dictionary_SSH_Attacks    old(2019-07-03):  52648   new(2019-07-04):  52651   removed:     33   added:    36
Dictionary_SSH_Attacks    old(2019-07-04):  52651   new(2019-07-05):  52641   removed:     35   added:    25
Dictionary_SSH_Attacks    old(2019-07-05):  52641   new(2019-07-06):  52653   removed:     14   added:    26
Dictionary_SSH_Attacks    old(2019-07-06):  52653   new(2019-07-07):  52664   removed:     14   added:    25
Dictionary_SSH_Attacks    old(2019-07-07):  52664   new(2019-07-08):  52676   removed:     14   added:    26

Dictionary_SSH_Attacks    old(2019-06-21):  52566   new(2019-07-08):  52676   removed:    350   added:    460

GreenSnow_Blacklist       old(2019-06-21):   3183   new(2019-06-22):   2872   removed:   1420   added:  1109
GreenSnow_Blacklist       old(2019-06-22):   2872   new(2019-06-23):   2434   removed:   1415   added:   977
GreenSnow_Blacklist       old(2019-06-23):   2434   new(2019-06-24):   2975   removed:   1191   added:  1732
GreenSnow_Blacklist       old(2019-06-24):   2975   new(2019-06-25):   3309   removed:    963   added:  1297
GreenSnow_Blacklist       old(2019-06-25):   3309   new(2019-06-26):   2964   removed:   1500   added:  1155
GreenSnow_Blacklist       old(2019-06-26):   2964   new(2019-06-27):   2315   removed:   2298   added:  1649
GreenSnow_Blacklist       old(2019-06-27):   2315   new(2019-06-28):   3038   removed:    638   added:  1361
GreenSnow_Blacklist       old(2019-06-28):   3038   new(2019-06-29):   3027   removed:    958   added:   947
GreenSnow_Blacklist       old(2019-06-29):   3027   new(2019-06-30):   2833   removed:   1152   added:   958
GreenSnow_Blacklist       old(2019-06-30):   2833   new(2019-07-01):   2777   removed:    985   added:   929
GreenSnow_Blacklist       old(2019-07-01):   2777   new(2019-07-02):   2991   removed:   1047   added:  1261
GreenSnow_Blacklist       old(2019-07-02):   2991   new(2019-07-03):   3017   removed:   1006   added:  1032
GreenSnow_Blacklist       old(2019-07-03):   3017   new(2019-07-04):   2790   removed:   1288   added:  1061
GreenSnow_Blacklist       old(2019-07-04):   2790   new(2019-07-05):   2509   removed:   1180   added:   899
GreenSnow_Blacklist       old(2019-07-05):   2509   new(2019-07-06):   2663   removed:    980   added:  1134
GreenSnow_Blacklist       old(2019-07-06):   2663   new(2019-07-07):   2886   removed:    932   added:  1155
GreenSnow_Blacklist       old(2019-07-07):   2886   new(2019-07-08):   2584   removed:   1179   added:   877

GreenSnow_Blacklist       old(2019-06-21):   3183   new(2019-07-08):   2584   removed:   2641   added:   2042

Hancitor_IPs              old(2019-06-21):    723   new(2019-06-22):    723   removed:      0   added:     0
Hancitor_IPs              old(2019-06-22):    723   new(2019-06-23):    723   removed:      0   added:     0
Hancitor_IPs              old(2019-06-23):    723   new(2019-06-24):    723   removed:      0   added:     0
Hancitor_IPs              old(2019-06-24):    723   new(2019-06-25):    723   removed:      0   added:     0
Hancitor_IPs              old(2019-06-25):    723   new(2019-06-26):    723   removed:      0   added:     0
Hancitor_IPs              old(2019-06-26):    723   new(2019-06-27):    723   removed:      0   added:     0
Hancitor_IPs              old(2019-06-27):    723   new(2019-06-28):    723   removed:      0   added:     0
Hancitor_IPs              old(2019-06-28):    723   new(2019-06-29):    723   removed:      0   added:     0
Hancitor_IPs              old(2019-06-29):    723   new(2019-06-30):    723   removed:      0   added:     0
Hancitor_IPs              old(2019-06-30):    723   new(2019-07-01):    723   removed:      0   added:     0
Hancitor_IPs              old(2019-07-01):    723   new(2019-07-02):    723   removed:      0   added:     0
Hancitor_IPs              old(2019-07-02):    723   new(2019-07-03):    726   removed:      3   added:     6
Hancitor_IPs              old(2019-07-03):    726   new(2019-07-04):    727   removed:      1   added:     2
Hancitor_IPs              old(2019-07-04):    727   new(2019-07-05):    727   removed:      0   added:     0
Hancitor_IPs              old(2019-07-05):    727   new(2019-07-06):    727   removed:      0   added:     0
Hancitor_IPs              old(2019-07-06):    727   new(2019-07-07):    727   removed:      0   added:     0
Hancitor_IPs              old(2019-07-07):    727   new(2019-07-08):    727   removed:      0   added:     0

Hancitor_IPs              old(2019-06-21):    723   new(2019-07-08):    727   removed:      4   added:      8

IPSpamList                old(2019-06-21):     50   new(2019-06-22):     50   removed:     50   added:    50
IPSpamList                old(2019-06-22):     50   new(2019-06-23):     50   removed:     50   added:    50
IPSpamList                old(2019-06-23):     50   new(2019-06-24):     50   removed:     50   added:    50
IPSpamList                old(2019-06-24):     50   new(2019-06-25):     50   removed:     50   added:    50
IPSpamList                old(2019-06-25):     50   new(2019-06-26):     50   removed:     50   added:    50
IPSpamList                old(2019-06-26):     50   new(2019-06-27):     50   removed:     50   added:    50
IPSpamList                old(2019-06-27):     50   new(2019-06-28):     50   removed:     50   added:    50
IPSpamList                old(2019-06-28):     50   new(2019-06-29):     50   removed:     50   added:    50
IPSpamList                old(2019-06-29):     50   new(2019-06-30):     50   removed:     50   added:    50
IPSpamList                old(2019-06-30):     50   new(2019-07-01):     50   removed:     50   added:    50
IPSpamList                old(2019-07-01):     50   new(2019-07-02):     50   removed:     50   added:    50
IPSpamList                old(2019-07-02):     50   new(2019-07-03):     50   removed:     50   added:    50
IPSpamList                old(2019-07-03):     50   new(2019-07-04):     50   removed:     50   added:    50
IPSpamList                old(2019-07-04):     50   new(2019-07-05):     50   removed:     50   added:    50
IPSpamList                old(2019-07-05):     50   new(2019-07-06):     50   removed:     50   added:    50
IPSpamList                old(2019-07-06):     50   new(2019-07-07):     50   removed:     50   added:    50
IPSpamList                old(2019-07-07):     50   new(2019-07-08):     50   removed:     50   added:    50

IPSpamList                old(2019-06-21):     50   new(2019-07-08):     50   removed:     50   added:     50

ipsum                     old(2019-06-21): 245795   new(2019-06-22): 245725   removed:  12380   added: 12310
ipsum                     old(2019-06-22): 245725   new(2019-06-23): 236238   removed:  29881   added: 20394
ipsum                     old(2019-06-23): 236238   new(2019-06-24): 248848   removed:  22343   added: 34953
ipsum                     old(2019-06-24): 248848   new(2019-06-25): 240420   removed:  33375   added: 24947
ipsum                     old(2019-06-25): 240420   new(2019-06-26): 251794   removed:  22196   added: 33570
ipsum                     old(2019-06-26): 251794   new(2019-06-27): 252167   removed:  13118   added: 13491
ipsum                     old(2019-06-27): 252167   new(2019-06-28): 256228   removed:  15221   added: 19282
ipsum                     old(2019-06-28): 256228   new(2019-06-29): 245438   removed:  33129   added: 22339
ipsum                     old(2019-06-29): 245438   new(2019-06-30): 255286   removed:  21527   added: 31375
ipsum                     old(2019-06-30): 255286   new(2019-07-01): 254378   removed:  12940   added: 12032
ipsum                     old(2019-07-01): 254378   new(2019-07-02): 245199   removed:  29331   added: 20152
ipsum                     old(2019-07-02): 245199   new(2019-07-03): 245199   removed:      0   added:     0
ipsum                     old(2019-07-03): 245199   new(2019-07-04): 245199   removed:      0   added:     0
ipsum                     old(2019-07-04): 245199   new(2019-07-05): 259138   removed:  31537   added: 45476
ipsum                     old(2019-07-05): 259138   new(2019-07-06): 262037   removed:  15138   added: 18037
ipsum                     old(2019-07-06): 262037   new(2019-07-07): 259195   removed:  18012   added: 15170
ipsum                     old(2019-07-07): 259195   new(2019-07-08): 254763   removed:  20626   added: 16194

ipsum                     old(2019-06-21): 245795   new(2019-07-08): 254763   removed:  72725   added:  81693

Malicious_EXE_IPs         old(2019-06-21):    345   new(2019-06-22):    345   removed:      0   added:     0
Malicious_EXE_IPs         old(2019-06-22):    345   new(2019-06-23):    345   removed:      0   added:     0
Malicious_EXE_IPs         old(2019-06-23):    345   new(2019-06-24):    284   removed:    119   added:    58
Malicious_EXE_IPs         old(2019-06-24):    284   new(2019-06-25):    284   removed:      0   added:     0
Malicious_EXE_IPs         old(2019-06-25):    284   new(2019-06-26):    284   removed:      0   added:     0
Malicious_EXE_IPs         old(2019-06-26):    284   new(2019-06-27):    305   removed:     20   added:    41
Malicious_EXE_IPs         old(2019-06-27):    305   new(2019-06-28):    306   removed:      1   added:     2
Malicious_EXE_IPs         old(2019-06-28):    306   new(2019-06-29):    310   removed:      3   added:     7
Malicious_EXE_IPs         old(2019-06-29):    310   new(2019-06-30):    310   removed:      0   added:     0
Malicious_EXE_IPs         old(2019-06-30):    310   new(2019-07-01):    273   removed:     70   added:    33
Malicious_EXE_IPs         old(2019-07-01):    273   new(2019-07-02):    273   removed:      0   added:     0
Malicious_EXE_IPs         old(2019-07-02):    273   new(2019-07-03):    273   removed:      0   added:     0
Malicious_EXE_IPs         old(2019-07-03):    273   new(2019-07-04):    273   removed:      0   added:     0
Malicious_EXE_IPs         old(2019-07-04):    273   new(2019-07-05):    273   removed:      0   added:     0
Malicious_EXE_IPs         old(2019-07-05):    273   new(2019-07-06):    281   removed:      8   added:    16
Malicious_EXE_IPs         old(2019-07-06):    281   new(2019-07-07):    281   removed:      0   added:     0
Malicious_EXE_IPs         old(2019-07-07):    281   new(2019-07-08):    254   removed:     54   added:    27

Malicious_EXE_IPs         old(2019-06-21):    345   new(2019-07-08):    254   removed:    177   added:     86

Ransomware_IPs            old(2019-06-21):    336   new(2019-06-22):    336   removed:      0   added:     0
Ransomware_IPs            old(2019-06-22):    336   new(2019-06-23):    336   removed:      0   added:     0
Ransomware_IPs            old(2019-06-23):    336   new(2019-06-24):    336   removed:      0   added:     0
Ransomware_IPs            old(2019-06-24):    336   new(2019-06-25):    337   removed:      1   added:     2
Ransomware_IPs            old(2019-06-25):    337   new(2019-06-26):    335   removed:      4   added:     2
Ransomware_IPs            old(2019-06-26):    335   new(2019-06-27):    334   removed:      2   added:     1
Ransomware_IPs            old(2019-06-27):    334   new(2019-06-28):    336   removed:      2   added:     4
Ransomware_IPs            old(2019-06-28):    336   new(2019-06-29):    334   removed:      4   added:     2
Ransomware_IPs            old(2019-06-29):    334   new(2019-06-30):    335   removed:      1   added:     2
Ransomware_IPs            old(2019-06-30):    335   new(2019-07-01):    337   removed:      2   added:     4
Ransomware_IPs            old(2019-07-01):    337   new(2019-07-03):    338   removed:      2   added:     3
Ransomware_IPs            old(2019-07-03):    338   new(2019-07-04):    337   removed:      2   added:     1
Ransomware_IPs            old(2019-07-04):    337   new(2019-07-05):    337   removed:      1   added:     1
Ransomware_IPs            old(2019-07-05):    337   new(2019-07-06):    338   removed:      1   added:     2
Ransomware_IPs            old(2019-07-06):    338   new(2019-07-07):    338   removed:      0   added:     0
Ransomware_IPs            old(2019-07-07):    338   new(2019-07-08):    338   removed:      0   added:     0

Ransomware_IPs            old(2019-06-21):    336   new(2019-07-08):    338   removed:     10   added:     12

SSL_BL                    old(2019-06-21):     77   new(2019-06-22):     72   removed:     10   added:     5
SSL_BL                    old(2019-06-22):     72   new(2019-06-23):     71   removed:      2   added:     1
SSL_BL                    old(2019-06-23):     71   new(2019-06-24):     72   removed:      3   added:     4
SSL_BL                    old(2019-06-24):     72   new(2019-06-25):     73   removed:      1   added:     2
SSL_BL                    old(2019-06-25):     73   new(2019-06-26):     75   removed:      5   added:     7
SSL_BL                    old(2019-06-26):     75   new(2019-06-27):     75   removed:      0   added:     0
SSL_BL                    old(2019-06-27):     75   new(2019-06-28):     81   removed:      7   added:    13
SSL_BL                    old(2019-06-28):     81   new(2019-06-29):     83   removed:      3   added:     5
SSL_BL                    old(2019-06-29):     83   new(2019-06-30):     78   removed:     11   added:     6
SSL_BL                    old(2019-06-30):     78   new(2019-07-01):     78   removed:      1   added:     1
SSL_BL                    old(2019-07-01):     78   new(2019-07-03):     84   removed:      6   added:    12
SSL_BL                    old(2019-07-03):     84   new(2019-07-04):     87   removed:      3   added:     6
SSL_BL                    old(2019-07-04):     87   new(2019-07-05):     92   removed:      5   added:    10
SSL_BL                    old(2019-07-05):     92   new(2019-07-06):     90   removed:      6   added:     4
SSL_BL                    old(2019-07-06):     90   new(2019-07-07):     80   removed:     21   added:    11
SSL_BL                    old(2019-07-07):     80   new(2019-07-08):     80   removed:      2   added:     2

SSL_BL                    old(2019-06-21):     77   new(2019-07-08):     80   removed:     36   added:     39

Talos_IP_Blacklist        old(2019-06-21):   1936   new(2019-06-22):   1917   removed:     81   added:    62
Talos_IP_Blacklist        old(2019-06-22):   1917   new(2019-06-23):   1918   removed:     47   added:    48
Talos_IP_Blacklist        old(2019-06-23):   1918   new(2019-06-24):   1927   removed:     48   added:    57
Talos_IP_Blacklist        old(2019-06-24):   1927   new(2019-06-25):   1924   removed:     57   added:    54
Talos_IP_Blacklist        old(2019-06-25):   1924   new(2019-06-26):   1916   removed:     66   added:    58
Talos_IP_Blacklist        old(2019-06-26):   1916   new(2019-06-27):   1907   removed:     83   added:    74
Talos_IP_Blacklist        old(2019-06-27):   1907   new(2019-06-28):   1894   removed:     36   added:    23
Talos_IP_Blacklist        old(2019-06-28):   1894   new(2019-06-29):   1857   removed:     83   added:    46
Talos_IP_Blacklist        old(2019-06-29):   1857   new(2019-06-30):   1100   removed:   1197   added:   440
Talos_IP_Blacklist        old(2019-06-30):   1100   new(2019-07-01):   1101   removed:     15   added:    16
Talos_IP_Blacklist        old(2019-07-01):   1101   new(2019-07-03):   1139   removed:     61   added:    99
Talos_IP_Blacklist        old(2019-07-03):   1139   new(2019-07-04):   1155   removed:     34   added:    50
Talos_IP_Blacklist        old(2019-07-04):   1155   new(2019-07-05):   1138   removed:     58   added:    41
Talos_IP_Blacklist        old(2019-07-05):   1138   new(2019-07-06):   1125   removed:     33   added:    20
Talos_IP_Blacklist        old(2019-07-06):   1125   new(2019-07-07):   1120   removed:     12   added:     7
Talos_IP_Blacklist        old(2019-07-07):   1120   new(2019-07-08):   1096   removed:     48   added:    24

Talos_IP_Blacklist        old(2019-06-21):   1936   new(2019-07-08):   1096   removed:   1383   added:    543

Tor_IPs                   old(2019-06-21):   6197   new(2019-06-22):   6196   removed:    404   added:   403
Tor_IPs                   old(2019-06-22):   6196   new(2019-06-23):   6210   removed:    352   added:   366
Tor_IPs                   old(2019-06-23):   6210   new(2019-06-24):   6153   removed:    476   added:   419
Tor_IPs                   old(2019-06-24):   6153   new(2019-06-25):   6173   removed:    417   added:   437
Tor_IPs                   old(2019-06-25):   6173   new(2019-06-26):   6122   removed:    487   added:   436
Tor_IPs                   old(2019-06-26):   6122   new(2019-06-27):   6219   removed:    587   added:   684
Tor_IPs                   old(2019-06-27):   6219   new(2019-06-28):   6087   removed:    581   added:   449
Tor_IPs                   old(2019-06-28):   6087   new(2019-06-29):   6083   removed:    389   added:   385
Tor_IPs                   old(2019-06-29):   6083   new(2019-06-30):   6094   removed:    373   added:   384
Tor_IPs                   old(2019-06-30):   6094   new(2019-07-01):   6164   removed:    453   added:   523
Tor_IPs                   old(2019-07-01):   6164   new(2019-07-03):   6252   removed:    628   added:   716
Tor_IPs                   old(2019-07-03):   6252   new(2019-07-04):   6187   removed:    524   added:   459
Tor_IPs                   old(2019-07-04):   6187   new(2019-07-05):   6198   removed:    374   added:   385
Tor_IPs                   old(2019-07-05):   6198   new(2019-07-06):   6248   removed:    454   added:   504
Tor_IPs                   old(2019-07-06):   6248   new(2019-07-07):   6279   removed:    352   added:   383
Tor_IPs                   old(2019-07-07):   6279   new(2019-07-08):   6269   removed:    387   added:   377

Tor_IPs                   old(2019-06-21):   6197   new(2019-07-08):   6269   removed:   1110   added:   1182

Zeus_Bad_IPs              old(2019-06-21):    109   new(2019-06-22):    109   removed:      0   added:     0
Zeus_Bad_IPs              old(2019-06-22):    109   new(2019-06-23):    109   removed:      0   added:     0
Zeus_Bad_IPs              old(2019-06-23):    109   new(2019-06-24):    109   removed:      0   added:     0
Zeus_Bad_IPs              old(2019-06-24):    109   new(2019-06-25):    109   removed:      0   added:     0
Zeus_Bad_IPs              old(2019-06-25):    109   new(2019-06-26):    109   removed:      0   added:     0
Zeus_Bad_IPs              old(2019-06-26):    109   new(2019-06-27):    109   removed:      0   added:     0
Zeus_Bad_IPs              old(2019-06-27):    109   new(2019-06-28):    109   removed:      0   added:     0
Zeus_Bad_IPs              old(2019-06-28):    109   new(2019-06-29):    110   removed:      1   added:     2
Zeus_Bad_IPs              old(2019-06-29):    110   new(2019-06-30):    110   removed:      0   added:     0
Zeus_Bad_IPs              old(2019-06-30):    110   new(2019-07-01):    110   removed:      0   added:     0
Zeus_Bad_IPs              old(2019-07-01):    110   new(2019-07-03):    110   removed:      0   added:     0
Zeus_Bad_IPs              old(2019-07-03):    110   new(2019-07-04):    110   removed:      0   added:     0
Zeus_Bad_IPs              old(2019-07-04):    110   new(2019-07-05):    110   removed:      0   added:     0
Zeus_Bad_IPs              old(2019-07-05):    110   new(2019-07-06):    110   removed:      0   added:     0
Zeus_Bad_IPs              old(2019-07-06):    110   new(2019-07-07):    110   removed:      0   added:     0
Zeus_Bad_IPs              old(2019-07-07):    110   new(2019-07-08):    110   removed:      0   added:     0

Zeus_Bad_IPs              old(2019-06-21):    109   new(2019-07-08):    110   removed:      1   added:      2

